R_assignment
…
## Warning: NAs introduced by coercion

read_tsv("Maize_increasing_1.txt")

## Parsed with column specification:
## cols(
##   .default = col_character(),
##   Chromosome = col_double(),
##   Position = col_double()
## )

## See spec(...) for full column specifications.

## # A tibble: 155 x 1,549
##    SNP_ID Chromosome Position V1    V2    V3    V4    V5    V6    V7   
##    <chr>       <dbl>    <dbl> <chr> <chr> <chr> <chr> <chr> <chr> <chr>
##  1 PZB00~          1   157104 C/C   C/C   A/C   C/C   C/C   C/C   C/C  
##  2 PZA02~          1  3205252 T/T   T/T   T/T   T/T   T/T   T/T   T/T  
##  3 PZA00~          1  4175293 C/T   C/C   T/T   T/T   T/T   T/T   ?/?  
##  4 PZA00~          1  4175573 G/G   G/G   G/G   G/G   G/G   G/G   G/G  
##  5 PZA02~          1  4429897 C/C   C/C   ?/?   ?/?   C/C   C/C   C/C  
##  6 PZA02~          1  4430055 T/T   T/T   C/T   ?/?   T/T   C/C   T/T  
##  7 PZD00~          1  4835472 G/G   G/G   G/G   G/G   G/G   G/G   G/G  
##  8 PZD00~          1  4835540 T/T   ?/?   T/T   T/T   T/T   T/T   C/T  
##  9 PZD00~          1  4835596 A/A   A/A   A/A   A/A   A/A   A/A   A/T  
## 10 zagl1~          1  4835658 T/T   T/T   T/T   T/T   T/T   T/T   C/T  
## # ... with 145 more rows, and 1,539 more variables: V8 <chr>, V9 <chr>,
## #   V10 <chr>, V11 <chr>, V12 <chr>, V13 <chr>, V14 <chr>, V15 <chr>,
## #   V16 <chr>, V17 <chr>, V18 <chr>, V19 <chr>, V20 <chr>, V21 <chr>,
## #   V22 <chr>, V23 <chr>, V24 <chr>, V25 <chr>, V26 <chr>, V27 <chr>,
## #   V28 <chr>, V29 <chr>, V30 <chr>, V31 <chr>, V32 <chr>, V33 <chr>,
## #   V34 <chr>, V35 <chr>, V36 <chr>, V37 <chr>, V38 <chr>, V39 <chr>,
## #   V40 <chr>, V41 <chr>, V42 <chr>, V43 <chr>, V44 <chr>, V45 <chr>,
## #   V46 <chr>, V47 <chr>, V48 <chr>, V49 <chr>, V50 <chr>, V51 <chr>,
## #   V52 <chr>, V53 <chr>, V54 <chr>, V55 <chr>, V56 <chr>, V57 <chr>,
…
## Warning: NAs introduced by coercion

read_tsv("Teosinte_decreasing_1.txt")

## Parsed with column specification:
## cols(
##   .default = col_character(),
##   Chromosome = col_double(),
##   Position = col_double()
## )

## See spec(...) for full column specifications.

## # A tibble: 155 x 978
##    SNP_ID Chromosome Position V1    V2    V3    V4    V5    V6    V7   
##    <chr>       <dbl>    <dbl> <chr> <chr> <chr> <chr> <chr> <chr> <chr>
##  1 PZA00~          1   2.98e8 -/-   C/G   G/G   G/G   C/G   G/G   G/G  
##  2 PZA00~          1   2.98e8 G/G   G/G   G/G   G/G   G/G   G/G   G/G  
##  3 PZA00~          1   2.98e8 C/T   C/C   C/T   C/T   T/T   C/T   C/T  
##  4 PZA00~          1   2.98e8 G/G   C/G   G/G   G/G   G/G   G/G   G/G  
##  5 PZA00~          1   2.98e8 G/T   T/T   T/T   G/T   -/-   G/T   T/T  
##  6 PZA00~          1   2.96e8 A/A   A/A   A/A   A/A   A/G   A/A   A/A  
##  7 PZA00~          1   2.95e8 A/A   A/A   A/A   A/A   A/A   A/A   A/A  
##  8 PZA00~          1   2.94e8 G/G   G/G   -/-   G/G   C/C   G/G   G/G  
##  9 PZA00~          1   2.93e8 A/G   G/G   G/G   A/G   A/G   G/G   -/-  
## 10 PZA00~          1   2.93e8 G/T   G/T   G/G   G/T   G/T   -/-   T/T  
## # ... with 145 more rows, and 968 more variables: V8 <chr>, V9 <chr>,
## #   V10 <chr>, V11 <chr>, V12 <chr>, V13 <chr>, V14 <chr>, V15 <chr>,
## #   V16 <chr>, V17 <chr>, V18 <chr>, V19 <chr>, V20 <chr>, V21 <chr>,
## #   V22 <chr>, V23 <chr>, V24 <chr>, V25 <chr>, V26 <chr>, V27 <chr>,
## #   V28 <chr>, V29 <chr>, V30 <chr>, V31 <chr>, V32 <chr>, V33 <chr>,
## #   V34 <chr>, V35 <chr>, V36 <chr>, V37 <chr>, V38 <chr>, V39 <chr>,
## #   V40 <chr>, V41 <chr>, V42 <chr>, V43 <chr>, V44 <chr>, V45 <chr>,
## #   V46 <chr>, V47 <chr>, V48 <chr>, V49 <chr>, V50 <chr>, V51 <chr>,
## #   V52 <chr>, V53 <chr>, V54 <chr>, V55 <chr>, V56 <chr>, V57 <chr>,
…
Maize_genotypes <- filter(genotypes, `Group` %in% c("ZMMIL","ZMMLR"," ZMMMR"))
rm(genotypes)

#pivot both sets
Teo_pivot <- pivot_longer(Teo_genotypes, -Sample_ID:-Group, names_to = "SNP_ID", values_to = "Sequence")

Maize_pivot <- pivot_longer(Maize_genotypes, -Sample_ID:-Group, names_to = "SNP_ID", values_to = "Sequence")

rm(Teo_genotypes)
rm(Maize_genotypes)

Maize_pivot

## # A tibble: 1,519,718 x 5
##    Sample_ID JG_OTU                 Group SNP_ID   Sequence
##    <chr>     <chr>                  <chr> <chr>    <chr>   
##  1 ZDP_0752a Zmm-LR-ACOM-usa-NM-1_s ZMMLR abph1.20 C/G     
##  2 ZDP_0752a Zmm-LR-ACOM-usa-NM-1_s ZMMLR abph1.22 A/A     
##  3 ZDP_0752a Zmm-LR-ACOM-usa-NM-1_s ZMMLR ae1.3    T/T     
##  4 ZDP_0752a Zmm-LR-ACOM-usa-NM-1_s ZMMLR ae1.4    G/G     
##  5 ZDP_0752a Zmm-LR-ACOM-usa-NM-1_s ZMMLR ae1.5    C/C     
##  6 ZDP_0752a Zmm-LR-ACOM-usa-NM-1_s ZMMLR an1.4    C/G     
##  7 ZDP_0752a Zmm-LR-ACOM-usa-NM-1_s ZMMLR ba1.6    G/G     
##  8 ZDP_0752a Zmm-LR-ACOM-usa-NM-1_s ZMMLR ba1.9    G/G     
##  9 ZDP_0752a Zmm-LR-ACOM-usa-NM-1_s ZMMLR bt2.5    C/C     
## 10 ZDP_0752a Zmm-LR-ACOM-usa-NM-1_s ZMMLR bt2.7    ?/?     
## # ... with 1,519,708 more rows
…
